[gd_scene load_steps=3 format=2]

[ext_resource path="res://assets/environment/tilesets/ladder.png" type="Texture" id=1]

[sub_resource type="RectangleShape2D" id=1]
extents = Vector2( 7.98495, 7.98648 )

[node name="Ladder" type="Area2D" groups=[
"ladder",
]]

[node name="Sprite" type="Sprite" parent="."]
texture = ExtResource( 1 )

[node name="CollisionShape2D" type="CollisionShape2D" parent="."]
shape = SubResource( 1 )
